{
    "commands": {
        "audio": "a",
        "video": "v",
        "mod": "mod",
        "all": "all",
        "search": "find",
        "random": "r",
        "shuffle": "s",
        "repeat": "repeat",
        "history": "history",
        "statistics": "::stats",
        "rescan": "::rescan",
        "playlist": "playlist",
        "exit": "exit",
        "clear": "::clear",
        "config": "::config",
        "_defaultcommand": "all",
        "filter_commands": {
            "audio": "a",
            "video": "v",
            "mod": "m"
        },
        "playlist_commands": {
            "file_load": "::file",
            "crossfade": "::crossfade"
        }
    },
    "library": {
        "rootpath": "$HOME",
        "playlist_paths": [
            "$MUSICCONSOLE_CONFIG_DIR/playlists"
        ],
        "prefixdeletionpatterns": [
            "$MUSICCONSOLE_LIB_DIR/Music/",
            "$MUSICCONSOLE_LIB_DIR/Video/",
            "$MUSICCONSOLE_LIB_DIR/Videos/"
        ],
        "movetobottomphrases": [
            "instrumental",
            "ｉｎｓｔｒｕｍｅｎｔａｌ",
            "off vocal",
            "ｏｆｆ ｖｏｃａｌ",
            "ｏｆｆ　ｖｏｃａｌ"
        ],
        "audioformats": [
            "wav",
            "flac",
            "tta",
            "aiff",
            "ape",
            "pcm",
            "alac",
            "dts",
            "m4a",
            "ogg",
            "mka",
            "wma",
            "asf",
            "ra",
            "aac",
            "mp3"
        ],
        "videoformats": [
            "mp4",
            "webm",
            "h264",
            "h263",
            "ts",
            "m2ts",
            "mov",
            "ogm",
            "avi",
            "bk2",
            "bnk",
            "mkv",
            "wmv",
            "rv"
        ],
        "moduleformats": [
            "xm",
            "it",
            "mod",
            "med",
            "sid",
            "s3m"
        ]
    },
    "player": {
        "audioplayer": {
            "command": "mpv",
            "arguments": [
                "--no-video",
                "-really-quiet",
                "%f"
            ]
        },
        "videoplayer": {
            "command": "mpv",
            "arguments": [
                "-really-quiet",
                "%f"
            ]
        },
        "modplayer": {
            "command": "xmp",
            "arguments": [
            ]
        },
        "_allplayer": {
            "command": "mpv",
            "arguments": [
                "--no-video",
                "-really-quiet",
                "%f"
            ]
        }
    },
    "prompt": {
        "line": "> ",
        "kbhit_sleep_interval": 0.3,
        "metadata_title_split": [
        ],
        "hints_enabled": true,
        "hint_rows": 5,
        "hint_color": "gray",
        "highlighter_enabled": false,
        "histignore": [
            "^r$",
            "^s$",
            "^\\:\\:rescan.*$",
            "^\\:\\:stats.*$",
            "^\\:\\:clear.*$",
            "^history.*$",
            "^exit$",
            "^\\:\\:config.*$"
        ]
    },
    "appearance": {
        "artist": "%s",
        "album": "%s",
        "albmartist": "%s",
        "title": "%s",
        "genre": "%s",
        "track": "%s",
        "total_tracks": "%s",
        "extension": "[%s]",
        "path": "%s",
        "print_tagged": "($extension )($artist )($title )($album)",
        "print_plain": "$extension $path"
    },
    "randomizer": {
        "historysize": 5
    },
    "webserver": {
        "interface": "127.0.0.1",
        "port": 3823,
        "static_assets": "$MUSICCONSOLE_APP_DIR/WebUI/public",
        "templates": "$MUSICCONSOLE_APP_DIR/WebUI/templates"
    }
}
